ProgramCounter/VPCTop.vcd
$version Generated by VerilatedVcd $end
$date Fri Nov 18 16:34:52 2022 $end
$timescale 1ps $end

 $scope module TOP $end
  $var wire 12 % ImmOP [11:0] $end
  $var wire 12 ' PC [11:0] $end
  $var wire  1 & PCsrc $end
  $var wire  1 # clk $end
  $var wire  1 $ rst $end
  $scope module PCtop $end
   $var wire 32 + IMMOp_WIDTH [31:0] $end
   $var wire 12 % ImmOP [11:0] $end
   $var wire 12 ' PC [11:0] $end
   $var wire  1 & PCsrc $end
   $var wire  1 # clk $end
   $var wire 12 ( next_PC [11:0] $end
   $var wire  1 $ rst $end
   $scope module PC_Reg $end
    $var wire 12 ' PC [11:0] $end
    $var wire 32 + PC_WIDTH [31:0] $end
    $var wire  1 # clk $end
    $var wire 12 ( next_PC [11:0] $end
    $var wire  1 $ rst $end
   $upscope $end
   $scope module PC_Select $end
    $var wire  1 & PCsrc $end
    $var wire 12 ) branch_PC [11:0] $end
    $var wire 12 * inc_PC [11:0] $end
    $var wire 12 ( next_PC [11:0] $end
    $var wire 32 + next_PC_width [31:0] $end
   $upscope $end
  $upscope $end
 $upscope $end
$enddefinitions $end


#0
1#
0$
b000000011001 %
1&
b000000000000 '
b000000011001 (
b000000011001 )
b000000000100 *
b00000000000000000000000000001100 +
#1
0#
#2
1#
0&
b000000011001 '
b000000011101 (
b000000110010 )
b000000011101 *
#3
0#
#4
1#
b000000011101 '
b000000100001 (
b000000110110 )
b000000100001 *
#5
0#
#6
1#
b000000100001 '
b000000100101 (
b000000111010 )
b000000100101 *
#7
0#
#8
1#
b000000100101 '
b000000101001 (
b000000111110 )
b000000101001 *
#9
0#
#10
1#
b000000101001 '
b000000101101 (
b000001000010 )
b000000101101 *
#11
0#
#12
1#
b000000101101 '
b000000110001 (
b000001000110 )
b000000110001 *
#13
0#
#14
1#
b000000110001 '
b000000110101 (
b000001001010 )
b000000110101 *
#15
0#
#16
1#
b000000110101 '
b000000111001 (
b000001001110 )
b000000111001 *
#17
0#
#18
1#
b000000111001 '
b000000111101 (
b000001010010 )
b000000111101 *
#19
0#
#20
1#
b000000111101 '
b000001000001 (
b000001010110 )
b000001000001 *
#21
0#
#22
1#
b000001000001 '
b000001000101 (
b000001011010 )
b000001000101 *
#23
0#
#24
1#
b000001000101 '
b000001001001 (
b000001011110 )
b000001001001 *
#25
0#
#26
1#
b000001001001 '
b000001001101 (
b000001100010 )
b000001001101 *
#27
0#
#28
1#
b000001001101 '
b000001010001 (
b000001100110 )
b000001010001 *
#29
0#
#30
1#
b000001010001 '
b000001010101 (
b000001101010 )
b000001010101 *
#31
0#
#32
1#
b000001010101 '
b000001011001 (
b000001101110 )
b000001011001 *
#33
0#
#34
1#
b000001011001 '
b000001011101 (
b000001110010 )
b000001011101 *
#35
0#
#36
1#
b000001011101 '
b000001100001 (
b000001110110 )
b000001100001 *
#37
0#
#38
1#
b000001100001 '
b000001100101 (
b000001111010 )
b000001100101 *
#39
0#
#40
1#
b000001100101 '
b000001101001 (
b000001111110 )
b000001101001 *
#41
0#
#42
1#
b000001101001 '
b000001101101 (
b000010000010 )
b000001101101 *
#43
0#
#44
1#
b000001101101 '
b000001110001 (
b000010000110 )
b000001110001 *
#45
0#
#46
1#
b000001110001 '
b000001110101 (
b000010001010 )
b000001110101 *
#47
0#
#48
1#
b000001110101 '
b000001111001 (
b000010001110 )
b000001111001 *
#49
0#
#50
1#
b000001111001 '
b000001111101 (
b000010010010 )
b000001111101 *
#51
0#
#52
1#
b000001111101 '
b000010000001 (
b000010010110 )
b000010000001 *
#53
0#
#54
1#
b000010000001 '
b000010000101 (
b000010011010 )
b000010000101 *
#55
0#
#56
1#
b000010000101 '
b000010001001 (
b000010011110 )
b000010001001 *
#57
0#
#58
1#
b000010001001 '
b000010001101 (
b000010100010 )
b000010001101 *
#59
0#
#60
1#
b000010001101 '
b000010010001 (
b000010100110 )
b000010010001 *
#61
0#
#62
1#
b000010010001 '
b000010010101 (
b000010101010 )
b000010010101 *
#63
0#
#64
1#
b000010010101 '
b000010011001 (
b000010101110 )
b000010011001 *
#65
0#
#66
1#
b000010011001 '
b000010011101 (
b000010110010 )
b000010011101 *
#67
0#
#68
1#
b000010011101 '
b000010100001 (
b000010110110 )
b000010100001 *
#69
0#
#70
1#
b000010100001 '
b000010100101 (
b000010111010 )
b000010100101 *
#71
0#
#72
1#
b000010100101 '
b000010101001 (
b000010111110 )
b000010101001 *
#73
0#
#74
1#
b000010101001 '
b000010101101 (
b000011000010 )
b000010101101 *
#75
0#
#76
1#
b000010101101 '
b000010110001 (
b000011000110 )
b000010110001 *
#77
0#
#78
1#
b000010110001 '
b000010110101 (
b000011001010 )
b000010110101 *
#79
0#
#80
1#
b000010110101 '
b000010111001 (
b000011001110 )
b000010111001 *
#81
0#
#82
1#
b000010111001 '
b000010111101 (
b000011010010 )
b000010111101 *
#83
0#
#84
1#
b000010111101 '
b000011000001 (
b000011010110 )
b000011000001 *
#85
0#
#86
1#
b000011000001 '
b000011000101 (
b000011011010 )
b000011000101 *
#87
0#
#88
1#
b000011000101 '
b000011001001 (
b000011011110 )
b000011001001 *
#89
0#
#90
1#
b000011001001 '
b000011001101 (
b000011100010 )
b000011001101 *
#91
0#
#92
1#
b000011001101 '
b000011010001 (
b000011100110 )
b000011010001 *
#93
0#
#94
1#
b000011010001 '
b000011010101 (
b000011101010 )
b000011010101 *
#95
0#
#96
1#
b000011010101 '
b000011011001 (
b000011101110 )
b000011011001 *
#97
0#
#98
1#
b000011011001 '
b000011011101 (
b000011110010 )
b000011011101 *
#99
0#
#100
1#
b000011011101 '
b000011100001 (
b000011110110 )
b000011100001 *
#101
0#
#102
1#
b000011100001 '
b000011100101 (
b000011111010 )
b000011100101 *
#103
0#
#104
1#
b000011100101 '
b000011101001 (
b000011111110 )
b000011101001 *
#105
0#
#106
1#
b000011101001 '
b000011101101 (
b000100000010 )
b000011101101 *
#107
0#
#108
1#
b000011101101 '
b000011110001 (
b000100000110 )
b000011110001 *
#109
0#
#110
1#
b000011110001 '
b000011110101 (
b000100001010 )
b000011110101 *
#111
0#
#112
1#
b000011110101 '
b000011111001 (
b000100001110 )
b000011111001 *
#113
0#
#114
1#
b000011111001 '
b000011111101 (
b000100010010 )
b000011111101 *
#115
0#
#116
1#
b000011111101 '
b000100000001 (
b000100010110 )
b000100000001 *
#117
0#
#118
1#
b000100000001 '
b000100000101 (
b000100011010 )
b000100000101 *
#119
0#
#120
1#
b000100000101 '
b000100001001 (
b000100011110 )
b000100001001 *
#121
0#
#122
1#
b000100001001 '
b000100001101 (
b000100100010 )
b000100001101 *
#123
0#
#124
1#
b000100001101 '
b000100010001 (
b000100100110 )
b000100010001 *
#125
0#
#126
1#
b000100010001 '
b000100010101 (
b000100101010 )
b000100010101 *
#127
0#
#128
1#
b000100010101 '
b000100011001 (
b000100101110 )
b000100011001 *
#129
0#
#130
1#
b000100011001 '
b000100011101 (
b000100110010 )
b000100011101 *
#131
0#
#132
1#
b000100011101 '
b000100100001 (
b000100110110 )
b000100100001 *
#133
0#
#134
1#
b000100100001 '
b000100100101 (
b000100111010 )
b000100100101 *
#135
0#
#136
1#
b000100100101 '
b000100101001 (
b000100111110 )
b000100101001 *
#137
0#
#138
1#
b000100101001 '
b000100101101 (
b000101000010 )
b000100101101 *
#139
0#
#140
1#
b000100101101 '
b000100110001 (
b000101000110 )
b000100110001 *
#141
0#
#142
1#
b000100110001 '
b000100110101 (
b000101001010 )
b000100110101 *
#143
0#
#144
1#
b000100110101 '
b000100111001 (
b000101001110 )
b000100111001 *
#145
0#
#146
1#
b000100111001 '
b000100111101 (
b000101010010 )
b000100111101 *
#147
0#
#148
1#
b000100111101 '
b000101000001 (
b000101010110 )
b000101000001 *
#149
0#
#150
1#
b000101000001 '
b000101000101 (
b000101011010 )
b000101000101 *
#151
0#
#152
1#
b000101000101 '
b000101001001 (
b000101011110 )
b000101001001 *
#153
0#
#154
1#
b000101001001 '
b000101001101 (
b000101100010 )
b000101001101 *
#155
0#
#156
1#
b000101001101 '
b000101010001 (
b000101100110 )
b000101010001 *
#157
0#
#158
1#
b000101010001 '
b000101010101 (
b000101101010 )
b000101010101 *
#159
0#
#160
1#
b000101010101 '
b000101011001 (
b000101101110 )
b000101011001 *
#161
0#
#162
1#
b000101011001 '
b000101011101 (
b000101110010 )
b000101011101 *
#163
0#
#164
1#
b000101011101 '
b000101100001 (
b000101110110 )
b000101100001 *
#165
0#
#166
1#
b000101100001 '
b000101100101 (
b000101111010 )
b000101100101 *
#167
0#
#168
1#
b000101100101 '
b000101101001 (
b000101111110 )
b000101101001 *
#169
0#
#170
1#
b000101101001 '
b000101101101 (
b000110000010 )
b000101101101 *
#171
0#
#172
1#
b000101101101 '
b000101110001 (
b000110000110 )
b000101110001 *
#173
0#
#174
1#
b000101110001 '
b000101110101 (
b000110001010 )
b000101110101 *
#175
0#
#176
1#
b000101110101 '
b000101111001 (
b000110001110 )
b000101111001 *
#177
0#
#178
1#
b000101111001 '
b000101111101 (
b000110010010 )
b000101111101 *
#179
0#
#180
1#
b000101111101 '
b000110000001 (
b000110010110 )
b000110000001 *
#181
0#
#182
1#
b000110000001 '
b000110000101 (
b000110011010 )
b000110000101 *
#183
0#
#184
1#
b000110000101 '
b000110001001 (
b000110011110 )
b000110001001 *
#185
0#
#186
1#
b000110001001 '
b000110001101 (
b000110100010 )
b000110001101 *
#187
0#
#188
1#
b000110001101 '
b000110010001 (
b000110100110 )
b000110010001 *
#189
0#
#190
1#
b000110010001 '
b000110010101 (
b000110101010 )
b000110010101 *
#191
0#
#192
1#
b000110010101 '
b000110011001 (
b000110101110 )
b000110011001 *
#193
0#
#194
1#
b000110011001 '
b000110011101 (
b000110110010 )
b000110011101 *
#195
0#
#196
1#
b000110011101 '
b000110100001 (
b000110110110 )
b000110100001 *
#197
0#
#198
1#
b000110100001 '
b000110100101 (
b000110111010 )
b000110100101 *
#199
0#
#200
1#
b000110100101 '
b000110101001 (
b000110111110 )
b000110101001 *
#201
0#
#202
1#
b000110101001 '
b000110101101 (
b000111000010 )
b000110101101 *
#203
0#
#204
1#
b000110101101 '
b000110110001 (
b000111000110 )
b000110110001 *
#205
0#
#206
1#
b000110110001 '
b000110110101 (
b000111001010 )
b000110110101 *
#207
0#
#208
1#
b000110110101 '
b000110111001 (
b000111001110 )
b000110111001 *
#209
0#
#210
1#
b000110111001 '
b000110111101 (
b000111010010 )
b000110111101 *
#211
0#
#212
1#
b000110111101 '
b000111000001 (
b000111010110 )
b000111000001 *
#213
0#
#214
1#
b000111000001 '
b000111000101 (
b000111011010 )
b000111000101 *
#215
0#
#216
1#
b000111000101 '
b000111001001 (
b000111011110 )
b000111001001 *
#217
0#
#218
1#
b000111001001 '
b000111001101 (
b000111100010 )
b000111001101 *
#219
0#
#220
1#
b000111001101 '
b000111010001 (
b000111100110 )
b000111010001 *
#221
0#
#222
1#
b000111010001 '
b000111010101 (
b000111101010 )
b000111010101 *
#223
0#
#224
1#
b000111010101 '
b000111011001 (
b000111101110 )
b000111011001 *
#225
0#
#226
1#
b000111011001 '
b000111011101 (
b000111110010 )
b000111011101 *
#227
0#
#228
1#
b000111011101 '
b000111100001 (
b000111110110 )
b000111100001 *
#229
0#
#230
1#
b000111100001 '
b000111100101 (
b000111111010 )
b000111100101 *
#231
0#
#232
1#
b000111100101 '
b000111101001 (
b000111111110 )
b000111101001 *
#233
0#
#234
1#
b000111101001 '
b000111101101 (
b001000000010 )
b000111101101 *
#235
0#
#236
1#
b000111101101 '
b000111110001 (
b001000000110 )
b000111110001 *
#237
0#
#238
1#
b000111110001 '
b000111110101 (
b001000001010 )
b000111110101 *
#239
0#
#240
1#
b000111110101 '
b000111111001 (
b001000001110 )
b000111111001 *
#241
0#
#242
1#
b000111111001 '
b000111111101 (
b001000010010 )
b000111111101 *
#243
0#
#244
1#
b000111111101 '
b001000000001 (
b001000010110 )
b001000000001 *
#245
0#
#246
1#
b001000000001 '
b001000000101 (
b001000011010 )
b001000000101 *
#247
0#
#248
1#
b001000000101 '
b001000001001 (
b001000011110 )
b001000001001 *
#249
0#
#250
1#
b001000001001 '
b001000001101 (
b001000100010 )
b001000001101 *
#251
0#
#252
1#
b001000001101 '
b001000010001 (
b001000100110 )
b001000010001 *
#253
0#
#254
1#
b001000010001 '
b001000010101 (
b001000101010 )
b001000010101 *
#255
0#
#256
1#
b001000010101 '
b001000011001 (
b001000101110 )
b001000011001 *
#257
0#
#258
1#
b001000011001 '
b001000011101 (
b001000110010 )
b001000011101 *
#259
0#
#260
1#
b001000011101 '
b001000100001 (
b001000110110 )
b001000100001 *
#261
0#
#262
1#
b001000100001 '
b001000100101 (
b001000111010 )
b001000100101 *
#263
0#
#264
1#
b001000100101 '
b001000101001 (
b001000111110 )
b001000101001 *
#265
0#
#266
1#
b001000101001 '
b001000101101 (
b001001000010 )
b001000101101 *
#267
0#
#268
1#
b001000101101 '
b001000110001 (
b001001000110 )
b001000110001 *
#269
0#
#270
1#
b001000110001 '
b001000110101 (
b001001001010 )
b001000110101 *
#271
0#
#272
1#
b001000110101 '
b001000111001 (
b001001001110 )
b001000111001 *
#273
0#
#274
1#
b001000111001 '
b001000111101 (
b001001010010 )
b001000111101 *
#275
0#
#276
1#
b001000111101 '
b001001000001 (
b001001010110 )
b001001000001 *
#277
0#
#278
1#
b001001000001 '
b001001000101 (
b001001011010 )
b001001000101 *
#279
0#
#280
1#
b001001000101 '
b001001001001 (
b001001011110 )
b001001001001 *
#281
0#
#282
1#
b001001001001 '
b001001001101 (
b001001100010 )
b001001001101 *
#283
0#
#284
1#
b001001001101 '
b001001010001 (
b001001100110 )
b001001010001 *
#285
0#
#286
1#
b001001010001 '
b001001010101 (
b001001101010 )
b001001010101 *
#287
0#
#288
1#
b001001010101 '
b001001011001 (
b001001101110 )
b001001011001 *
#289
0#
#290
1#
b001001011001 '
b001001011101 (
b001001110010 )
b001001011101 *
#291
0#
#292
1#
b001001011101 '
b001001100001 (
b001001110110 )
b001001100001 *
#293
0#
#294
1#
b001001100001 '
b001001100101 (
b001001111010 )
b001001100101 *
#295
0#
#296
1#
b001001100101 '
b001001101001 (
b001001111110 )
b001001101001 *
#297
0#
#298
1#
b001001101001 '
b001001101101 (
b001010000010 )
b001001101101 *
#299
0#
#300
1#
b001001101101 '
b001001110001 (
b001010000110 )
b001001110001 *
#301
0#
#302
1#
b001001110001 '
b001001110101 (
b001010001010 )
b001001110101 *
#303
0#
#304
1#
b001001110101 '
b001001111001 (
b001010001110 )
b001001111001 *
#305
0#
#306
1#
b001001111001 '
b001001111101 (
b001010010010 )
b001001111101 *
#307
0#
#308
1#
b001001111101 '
b001010000001 (
b001010010110 )
b001010000001 *
#309
0#
#310
1#
b001010000001 '
b001010000101 (
b001010011010 )
b001010000101 *
#311
0#
#312
1#
b001010000101 '
b001010001001 (
b001010011110 )
b001010001001 *
#313
0#
#314
1#
b001010001001 '
b001010001101 (
b001010100010 )
b001010001101 *
#315
0#
#316
1#
b001010001101 '
b001010010001 (
b001010100110 )
b001010010001 *
#317
0#
#318
1#
b001010010001 '
b001010010101 (
b001010101010 )
b001010010101 *
#319
0#
#320
1#
b001010010101 '
b001010011001 (
b001010101110 )
b001010011001 *
#321
0#
#322
1#
b001010011001 '
b001010011101 (
b001010110010 )
b001010011101 *
#323
0#
#324
1#
b001010011101 '
b001010100001 (
b001010110110 )
b001010100001 *
#325
0#
#326
1#
b001010100001 '
b001010100101 (
b001010111010 )
b001010100101 *
#327
0#
#328
1#
b001010100101 '
b001010101001 (
b001010111110 )
b001010101001 *
#329
0#
#330
1#
b001010101001 '
b001010101101 (
b001011000010 )
b001010101101 *
#331
0#
#332
1#
b001010101101 '
b001010110001 (
b001011000110 )
b001010110001 *
#333
0#
#334
1#
b001010110001 '
b001010110101 (
b001011001010 )
b001010110101 *
#335
0#
#336
1#
b001010110101 '
b001010111001 (
b001011001110 )
b001010111001 *
#337
0#
#338
1#
b001010111001 '
b001010111101 (
b001011010010 )
b001010111101 *
#339
0#
#340
1#
b001010111101 '
b001011000001 (
b001011010110 )
b001011000001 *
#341
0#
#342
1#
b001011000001 '
b001011000101 (
b001011011010 )
b001011000101 *
#343
0#
#344
1#
b001011000101 '
b001011001001 (
b001011011110 )
b001011001001 *
#345
0#
#346
1#
b001011001001 '
b001011001101 (
b001011100010 )
b001011001101 *
#347
0#
#348
1#
b001011001101 '
b001011010001 (
b001011100110 )
b001011010001 *
#349
0#
#350
1#
b001011010001 '
b001011010101 (
b001011101010 )
b001011010101 *
#351
0#
#352
1#
b001011010101 '
b001011011001 (
b001011101110 )
b001011011001 *
#353
0#
#354
1#
b001011011001 '
b001011011101 (
b001011110010 )
b001011011101 *
#355
0#
#356
1#
b001011011101 '
b001011100001 (
b001011110110 )
b001011100001 *
#357
0#
#358
1#
b001011100001 '
b001011100101 (
b001011111010 )
b001011100101 *
#359
0#
#360
1#
b001011100101 '
b001011101001 (
b001011111110 )
b001011101001 *
#361
0#
#362
1#
b001011101001 '
b001011101101 (
b001100000010 )
b001011101101 *
#363
0#
#364
1#
b001011101101 '
b001011110001 (
b001100000110 )
b001011110001 *
#365
0#
#366
1#
b001011110001 '
b001011110101 (
b001100001010 )
b001011110101 *
#367
0#
#368
1#
b001011110101 '
b001011111001 (
b001100001110 )
b001011111001 *
#369
0#
#370
1#
b001011111001 '
b001011111101 (
b001100010010 )
b001011111101 *
#371
0#
#372
1#
b001011111101 '
b001100000001 (
b001100010110 )
b001100000001 *
#373
0#
#374
1#
b001100000001 '
b001100000101 (
b001100011010 )
b001100000101 *
#375
0#
#376
1#
b001100000101 '
b001100001001 (
b001100011110 )
b001100001001 *
#377
0#
#378
1#
b001100001001 '
b001100001101 (
b001100100010 )
b001100001101 *
#379
0#
#380
1#
b001100001101 '
b001100010001 (
b001100100110 )
b001100010001 *
#381
0#
#382
1#
b001100010001 '
b001100010101 (
b001100101010 )
b001100010101 *
#383
0#
#384
1#
b001100010101 '
b001100011001 (
b001100101110 )
b001100011001 *
#385
0#
#386
1#
b001100011001 '
b001100011101 (
b001100110010 )
b001100011101 *
#387
0#
#388
1#
b001100011101 '
b001100100001 (
b001100110110 )
b001100100001 *
#389
0#
#390
1#
b001100100001 '
b001100100101 (
b001100111010 )
b001100100101 *
#391
0#
#392
1#
b001100100101 '
b001100101001 (
b001100111110 )
b001100101001 *
#393
0#
#394
1#
b001100101001 '
b001100101101 (
b001101000010 )
b001100101101 *
#395
0#
#396
1#
b001100101101 '
b001100110001 (
b001101000110 )
b001100110001 *
#397
0#
#398
1#
b001100110001 '
b001100110101 (
b001101001010 )
b001100110101 *
#399
0#
#400
1#
b001100110101 '
b001100111001 (
b001101001110 )
b001100111001 *
#401
0#
#402
1#
b001100111001 '
b001100111101 (
b001101010010 )
b001100111101 *
#403
0#
#404
1#
b001100111101 '
b001101000001 (
b001101010110 )
b001101000001 *
#405
0#
#406
1#
b001101000001 '
b001101000101 (
b001101011010 )
b001101000101 *
#407
0#
#408
1#
b001101000101 '
b001101001001 (
b001101011110 )
b001101001001 *
#409
0#
#410
1#
b001101001001 '
b001101001101 (
b001101100010 )
b001101001101 *
#411
0#
#412
1#
b001101001101 '
b001101010001 (
b001101100110 )
b001101010001 *
#413
0#
#414
1#
b001101010001 '
b001101010101 (
b001101101010 )
b001101010101 *
#415
0#
#416
1#
b001101010101 '
b001101011001 (
b001101101110 )
b001101011001 *
#417
0#
#418
1#
b001101011001 '
b001101011101 (
b001101110010 )
b001101011101 *
#419
0#
#420
1#
b001101011101 '
b001101100001 (
b001101110110 )
b001101100001 *
#421
0#
#422
1#
b001101100001 '
b001101100101 (
b001101111010 )
b001101100101 *
#423
0#
#424
1#
b001101100101 '
b001101101001 (
b001101111110 )
b001101101001 *
#425
0#
#426
1#
b001101101001 '
b001101101101 (
b001110000010 )
b001101101101 *
#427
0#
#428
1#
b001101101101 '
b001101110001 (
b001110000110 )
b001101110001 *
#429
0#
#430
1#
b001101110001 '
b001101110101 (
b001110001010 )
b001101110101 *
#431
0#
#432
1#
b001101110101 '
b001101111001 (
b001110001110 )
b001101111001 *
#433
0#
#434
1#
b001101111001 '
b001101111101 (
b001110010010 )
b001101111101 *
#435
0#
#436
1#
b001101111101 '
b001110000001 (
b001110010110 )
b001110000001 *
#437
0#
#438
1#
b001110000001 '
b001110000101 (
b001110011010 )
b001110000101 *
#439
0#
#440
1#
b001110000101 '
b001110001001 (
b001110011110 )
b001110001001 *
#441
0#
#442
1#
b001110001001 '
b001110001101 (
b001110100010 )
b001110001101 *
#443
0#
#444
1#
b001110001101 '
b001110010001 (
b001110100110 )
b001110010001 *
#445
0#
#446
1#
b001110010001 '
b001110010101 (
b001110101010 )
b001110010101 *
#447
0#
#448
1#
b001110010101 '
b001110011001 (
b001110101110 )
b001110011001 *
#449
0#
#450
1#
b001110011001 '
b001110011101 (
b001110110010 )
b001110011101 *
#451
0#
#452
1#
b001110011101 '
b001110100001 (
b001110110110 )
b001110100001 *
#453
0#
#454
1#
b001110100001 '
b001110100101 (
b001110111010 )
b001110100101 *
#455
0#
#456
1#
b001110100101 '
b001110101001 (
b001110111110 )
b001110101001 *
#457
0#
#458
1#
b001110101001 '
b001110101101 (
b001111000010 )
b001110101101 *
#459
0#
#460
1#
b001110101101 '
b001110110001 (
b001111000110 )
b001110110001 *
#461
0#
#462
1#
b001110110001 '
b001110110101 (
b001111001010 )
b001110110101 *
#463
0#
#464
1#
b001110110101 '
b001110111001 (
b001111001110 )
b001110111001 *
#465
0#
#466
1#
b001110111001 '
b001110111101 (
b001111010010 )
b001110111101 *
#467
0#
#468
1#
b001110111101 '
b001111000001 (
b001111010110 )
b001111000001 *
#469
0#
#470
1#
b001111000001 '
b001111000101 (
b001111011010 )
b001111000101 *
#471
0#
#472
1#
b001111000101 '
b001111001001 (
b001111011110 )
b001111001001 *
#473
0#
#474
1#
b001111001001 '
b001111001101 (
b001111100010 )
b001111001101 *
#475
0#
#476
1#
b001111001101 '
b001111010001 (
b001111100110 )
b001111010001 *
#477
0#
#478
1#
b001111010001 '
b001111010101 (
b001111101010 )
b001111010101 *
#479
0#
#480
1#
b001111010101 '
b001111011001 (
b001111101110 )
b001111011001 *
#481
0#
#482
1#
b001111011001 '
b001111011101 (
b001111110010 )
b001111011101 *
#483
0#
#484
1#
b001111011101 '
b001111100001 (
b001111110110 )
b001111100001 *
#485
0#
#486
1#
b001111100001 '
b001111100101 (
b001111111010 )
b001111100101 *
#487
0#
#488
1#
b001111100101 '
b001111101001 (
b001111111110 )
b001111101001 *
#489
0#
#490
1#
b001111101001 '
b001111101101 (
b010000000010 )
b001111101101 *
#491
0#
#492
1#
b001111101101 '
b001111110001 (
b010000000110 )
b001111110001 *
#493
0#
#494
1#
b001111110001 '
b001111110101 (
b010000001010 )
b001111110101 *
#495
0#
#496
1#
b001111110101 '
b001111111001 (
b010000001110 )
b001111111001 *
#497
0#
#498
1#
b001111111001 '
b001111111101 (
b010000010010 )
b001111111101 *
#499
0#
#500
1#
b001111111101 '
b010000000001 (
b010000010110 )
b010000000001 *
#501
0#
#502
1#
b010000000001 '
b010000000101 (
b010000011010 )
b010000000101 *
#503
0#
#504
1#
b010000000101 '
b010000001001 (
b010000011110 )
b010000001001 *
#505
0#
#506
1#
b010000001001 '
b010000001101 (
b010000100010 )
b010000001101 *
#507
0#
#508
1#
b010000001101 '
b010000010001 (
b010000100110 )
b010000010001 *
#509
0#
#510
1#
b010000010001 '
b010000010101 (
b010000101010 )
b010000010101 *
#511
0#
#512
1#
b010000010101 '
b010000011001 (
b010000101110 )
b010000011001 *
#513
0#
#514
1#
b010000011001 '
b010000011101 (
b010000110010 )
b010000011101 *
#515
0#
#516
1#
b010000011101 '
b010000100001 (
b010000110110 )
b010000100001 *
#517
0#
#518
1#
b010000100001 '
b010000100101 (
b010000111010 )
b010000100101 *
#519
0#
#520
1#
b010000100101 '
b010000101001 (
b010000111110 )
b010000101001 *
#521
0#
#522
1#
b010000101001 '
b010000101101 (
b010001000010 )
b010000101101 *
#523
0#
#524
1#
b010000101101 '
b010000110001 (
b010001000110 )
b010000110001 *
#525
0#
#526
1#
b010000110001 '
b010000110101 (
b010001001010 )
b010000110101 *
#527
0#
#528
1#
b010000110101 '
b010000111001 (
b010001001110 )
b010000111001 *
#529
0#
#530
1#
b010000111001 '
b010000111101 (
b010001010010 )
b010000111101 *
#531
0#
#532
1#
b010000111101 '
b010001000001 (
b010001010110 )
b010001000001 *
#533
0#
#534
1#
b010001000001 '
b010001000101 (
b010001011010 )
b010001000101 *
#535
0#
#536
1#
b010001000101 '
b010001001001 (
b010001011110 )
b010001001001 *
#537
0#
#538
1#
b010001001001 '
b010001001101 (
b010001100010 )
b010001001101 *
#539
0#
#540
1#
b010001001101 '
b010001010001 (
b010001100110 )
b010001010001 *
#541
0#
#542
1#
b010001010001 '
b010001010101 (
b010001101010 )
b010001010101 *
#543
0#
#544
1#
b010001010101 '
b010001011001 (
b010001101110 )
b010001011001 *
#545
0#
#546
1#
b010001011001 '
b010001011101 (
b010001110010 )
b010001011101 *
#547
0#
#548
1#
b010001011101 '
b010001100001 (
b010001110110 )
b010001100001 *
#549
0#
#550
1#
b010001100001 '
b010001100101 (
b010001111010 )
b010001100101 *
#551
0#
#552
1#
b010001100101 '
b010001101001 (
b010001111110 )
b010001101001 *
#553
0#
#554
1#
b010001101001 '
b010001101101 (
b010010000010 )
b010001101101 *
#555
0#
#556
1#
b010001101101 '
b010001110001 (
b010010000110 )
b010001110001 *
#557
0#
#558
1#
b010001110001 '
b010001110101 (
b010010001010 )
b010001110101 *
#559
0#
#560
1#
b010001110101 '
b010001111001 (
b010010001110 )
b010001111001 *
#561
0#
#562
1#
b010001111001 '
b010001111101 (
b010010010010 )
b010001111101 *
#563
0#
#564
1#
b010001111101 '
b010010000001 (
b010010010110 )
b010010000001 *
#565
0#
#566
1#
b010010000001 '
b010010000101 (
b010010011010 )
b010010000101 *
#567
0#
#568
1#
b010010000101 '
b010010001001 (
b010010011110 )
b010010001001 *
#569
0#
#570
1#
b010010001001 '
b010010001101 (
b010010100010 )
b010010001101 *
#571
0#
#572
1#
b010010001101 '
b010010010001 (
b010010100110 )
b010010010001 *
#573
0#
#574
1#
b010010010001 '
b010010010101 (
b010010101010 )
b010010010101 *
#575
0#
#576
1#
b010010010101 '
b010010011001 (
b010010101110 )
b010010011001 *
#577
0#
#578
1#
b010010011001 '
b010010011101 (
b010010110010 )
b010010011101 *
#579
0#
#580
1#
b010010011101 '
b010010100001 (
b010010110110 )
b010010100001 *
#581
0#
#582
1#
b010010100001 '
b010010100101 (
b010010111010 )
b010010100101 *
#583
0#
#584
1#
b010010100101 '
b010010101001 (
b010010111110 )
b010010101001 *
#585
0#
#586
1#
b010010101001 '
b010010101101 (
b010011000010 )
b010010101101 *
#587
0#
#588
1#
b010010101101 '
b010010110001 (
b010011000110 )
b010010110001 *
#589
0#
#590
1#
b010010110001 '
b010010110101 (
b010011001010 )
b010010110101 *
#591
0#
#592
1#
b010010110101 '
b010010111001 (
b010011001110 )
b010010111001 *
#593
0#
#594
1#
b010010111001 '
b010010111101 (
b010011010010 )
b010010111101 *
#595
0#
#596
1#
b010010111101 '
b010011000001 (
b010011010110 )
b010011000001 *
#597
0#
#598
1#
b010011000001 '
b010011000101 (
b010011011010 )
b010011000101 *
